{
	"info": {
		"_postman_id": "51e2ce0c-0d49-4234-bed7-41acef9522a8",
		"name": "spring-sp-03",
		"schema": "https://schema.getpostman.com/json/collection/v2.1.0/collection.json"
	},
	"item": [
		{
			"name": "projectAdd",
			"request": {
				"method": "POST",
				"header": [
					{
						"key": "Content-Type",
						"name": "Content-Type",
						"value": "application/json",
						"type": "text"
					}
				],
				"body": {
					"mode": "raw",
					"raw": "{\n\"name\": \"RestAPI\",\n\"dateBegin\": \"2020-04-07\",\n\"dateEnd\": \"2020-04-07\"\n}",
					"options": {
						"raw": {
							"language": "json"
						}
					}
				},
				"url": {
					"raw": "http://localhost:8080/taskmanager/api/projects",
					"protocol": "http",
					"host": [
						"localhost"
					],
					"port": "8080",
					"path": [
						"taskmanager",
						"api",
						"projects"
					]
				}
			},
			"response": []
		},
		{
			"name": "projectEdit",
			"request": {
				"method": "PUT",
				"header": [
					{
						"key": "Content-Type",
						"name": "Content-Type",
						"value": "application/json",
						"type": "text"
					}
				],
				"body": {
					"mode": "raw",
					"raw": "{\n\"id\": \"b46253a9-0f9f-49cb-b699-e8c46b33d357\",\n\"name\": \"RestAPI New Name !!!\",\n\"dateBegin\": \"2020-04-13\",\n\"dateEnd\": \"2020-04-16\"\n}",
					"options": {
						"raw": {
							"language": "json"
						}
					}
				},
				"url": {
					"raw": "http://localhost:8080/taskmanager/api/projects",
					"protocol": "http",
					"host": [
						"localhost"
					],
					"port": "8080",
					"path": [
						"taskmanager",
						"api",
						"projects"
					]
				}
			},
			"response": []
		},
		{
			"name": "projectList",
			"request": {
				"method": "GET",
				"header": [],
				"url": {
					"raw": "http://localhost:8080/taskmanager/api/projects/",
					"protocol": "http",
					"host": [
						"localhost"
					],
					"port": "8080",
					"path": [
						"taskmanager",
						"api",
						"projects",
						""
					]
				}
			},
			"response": []
		},
		{
			"name": "taskList",
			"request": {
				"method": "GET",
				"header": [],
				"url": {
					"raw": "http://localhost:8080/taskmanager/api/tasks/",
					"protocol": "http",
					"host": [
						"localhost"
					],
					"port": "8080",
					"path": [
						"taskmanager",
						"api",
						"tasks",
						""
					]
				}
			},
			"response": []
		},
		{
			"name": "taskById",
			"request": {
				"method": "GET",
				"header": [],
				"url": {
					"raw": "http://localhost:8080/taskmanager/api/tasks/68d41eb1-08e6-4fe3-ae69-116f47c1a86b",
					"protocol": "http",
					"host": [
						"localhost"
					],
					"port": "8080",
					"path": [
						"taskmanager",
						"api",
						"tasks",
						"68d41eb1-08e6-4fe3-ae69-116f47c1a86b"
					]
				}
			},
			"response": []
		},
		{
			"name": "taskAdd",
			"request": {
				"method": "POST",
				"header": [],
				"body": {
					"mode": "raw",
					"raw": "{\n    \"project\": {\n        \"id\": \"13d5b66e-2adb-4fcb-81e7-298c0b648f4c\"\n    },\n    \"name\": \"New Added Task\",\n    \"dateBegin\": \"2020-04-14\",\n    \"dateEnd\": \"2020-04-26\",\n    \"description\": \"New description\"\n}",
					"options": {
						"raw": {
							"language": "json"
						}
					}
				},
				"url": {
					"raw": "http://localhost:8080/taskmanager/api/tasks/",
					"protocol": "http",
					"host": [
						"localhost"
					],
					"port": "8080",
					"path": [
						"taskmanager",
						"api",
						"tasks",
						""
					]
				}
			},
			"response": []
		},
		{
			"name": "taskEdit",
			"request": {
				"method": "PUT",
				"header": [],
				"body": {
					"mode": "raw",
					"raw": "{\n    \"id\": \"7ea7b1db-fca8-43cc-b6bd-2ac3b68fd133\",\n    \"project\": {\n        \"id\": \"13d5b66e-2adb-4fcb-81e7-298c0b648f4c\"\n    },\n    \"name\": \"New Added Task Change ===\",\n    \"dateBegin\": \"2020-04-14\",\n    \"dateEnd\": \"2020-04-26\",\n    \"description\": \"New description\"\n}",
					"options": {
						"raw": {
							"language": "json"
						}
					}
				},
				"url": {
					"raw": "http://localhost:8080/taskmanager/api/tasks/",
					"protocol": "http",
					"host": [
						"localhost"
					],
					"port": "8080",
					"path": [
						"taskmanager",
						"api",
						"tasks",
						""
					]
				}
			},
			"response": []
		},
		{
			"name": "taskDelete",
			"request": {
				"method": "DELETE",
				"header": [],
				"body": {
					"mode": "raw",
					"raw": "",
					"options": {
						"raw": {
							"language": "json"
						}
					}
				},
				"url": {
					"raw": "http://localhost:8080/taskmanager/api/tasks/7ea7b1db-fca8-43cc-b6bd-2ac3b68fd3b2",
					"protocol": "http",
					"host": [
						"localhost"
					],
					"port": "8080",
					"path": [
						"taskmanager",
						"api",
						"tasks",
						"7ea7b1db-fca8-43cc-b6bd-2ac3b68fd3b2"
					]
				}
			},
			"response": []
		},
		{
			"name": "projectById",
			"request": {
				"method": "GET",
				"header": [],
				"url": {
					"raw": "http://localhost:8080/taskmanager/api/projects/2f7ea983-042e-420d-a283-d1f555185fc7",
					"protocol": "http",
					"host": [
						"localhost"
					],
					"port": "8080",
					"path": [
						"taskmanager",
						"api",
						"projects",
						"2f7ea983-042e-420d-a283-d1f555185fc7"
					]
				}
			},
			"response": []
		},
		{
			"name": "projectDelete",
			"request": {
				"method": "DELETE",
				"header": [],
				"url": {
					"raw": "http://localhost:8080/taskmanager/api/projects/2f7ea983-042e-420d-a283-d1f555185fc7",
					"protocol": "http",
					"host": [
						"localhost"
					],
					"port": "8080",
					"path": [
						"taskmanager",
						"api",
						"projects",
						"2f7ea983-042e-420d-a283-d1f555185fc7"
					]
				}
			},
			"response": []
		}
	],
	"protocolProfileBehavior": {}
}